{
    "name": "darkwolf",
    "version": "5.0",
    "description": "darkwolf, A Dark Theme for phpMyAdmin",
    "author": "SteppenWolf68",
    "url": "https://github.com/SteppenWolf68",
    "supports": ["5.0", "5.1"]
}
